; ModuleID = 'test6.c'
target datalayout = "e-m:e-i64:64-f80:128-n8:16:32:64-S128"
target triple = "x86_64-unknown-linux-gnu"

@.str = private unnamed_addr constant [24 x i8] c"Size of int: %ld bytes\0A\00", align 1
@.str.1 = private unnamed_addr constant [26 x i8] c"Size of float: %ld bytes\0A\00", align 1
@.str.2 = private unnamed_addr constant [27 x i8] c"Size of double: %ld bytes\0A\00", align 1
@.str.3 = private unnamed_addr constant [24 x i8] c"Size of char: %ld byte\0A\00", align 1

; Function Attrs: nounwind uwtable
define i32 @main() #0 {
entry:
  %retval = alloca i32, align 4
  %integerType = alloca i32, align 4
  %floatType = alloca float, align 4
  %doubleType = alloca double, align 8
  %charType = alloca i8, align 1
  store i32 0, i32* %retval
  %call = call i32 (i8*, ...) @printf(i8* getelementptr inbounds ([24 x i8], [24 x i8]* @.str, i32 0, i32 0), i64 4)
  %call1 = call i32 (i8*, ...) @printf(i8* getelementptr inbounds ([26 x i8], [26 x i8]* @.str.1, i32 0, i32 0), i64 4)
  %call2 = call i32 (i8*, ...) @printf(i8* getelementptr inbounds ([27 x i8], [27 x i8]* @.str.2, i32 0, i32 0), i64 8)
  %call3 = call i32 (i8*, ...) @printf(i8* getelementptr inbounds ([24 x i8], [24 x i8]* @.str.3, i32 0, i32 0), i64 1)
  ret i32 0
}

declare i32 @printf(i8*, ...) #1

attributes #0 = { nounwind uwtable "disable-tail-calls"="false" "less-precise-fpmad"="false" "no-frame-pointer-elim"="true" "no-frame-pointer-elim-non-leaf" "no-infs-fp-math"="false" "no-nans-fp-math"="false" "stack-protector-buffer-size"="8" "target-cpu"="x86-64" "target-features"="+sse,+sse2" "unsafe-fp-math"="false" "use-soft-float"="false" }
attributes #1 = { "disable-tail-calls"="false" "less-precise-fpmad"="false" "no-frame-pointer-elim"="true" "no-frame-pointer-elim-non-leaf" "no-infs-fp-math"="false" "no-nans-fp-math"="false" "stack-protector-buffer-size"="8" "target-cpu"="x86-64" "target-features"="+sse,+sse2" "unsafe-fp-math"="false" "use-soft-float"="false" }

!llvm.ident = !{!0}

!0 = !{!"clang version 3.7.0 (tags/RELEASE_370/final)"}
