; ModuleID = 'test4.c'
target datalayout = "e-m:e-i64:64-f80:128-n8:16:32:64-S128"
target triple = "x86_64-unknown-linux-gnu"

@.str = private unnamed_addr constant [20 x i8] c"Enter a character: \00", align 1
@.str.1 = private unnamed_addr constant [3 x i8] c"%c\00", align 1
@.str.2 = private unnamed_addr constant [23 x i8] c"ASCII value of %c = %d\00", align 1

; Function Attrs: nounwind uwtable
define i32 @main() #0 {
entry:
  %c = alloca i8, align 1
  call void @llvm.lifetime.start(i64 1, i8* nonnull %c) #1
  %call = tail call i32 (i8*, ...) @printf(i8* getelementptr inbounds ([20 x i8], [20 x i8]* @.str, i64 0, i64 0)) #1
  %call1 = call i32 (i8*, ...) @__isoc99_scanf(i8* getelementptr inbounds ([3 x i8], [3 x i8]* @.str.1, i64 0, i64 0), i8* nonnull %c) #1
  %0 = load i8, i8* %c, align 1, !tbaa !1
  %conv = sext i8 %0 to i32
  %call3 = call i32 (i8*, ...) @printf(i8* getelementptr inbounds ([23 x i8], [23 x i8]* @.str.2, i64 0, i64 0), i32 %conv, i32 %conv) #1
  call void @llvm.lifetime.end(i64 1, i8* nonnull %c) #1
  ret i32 0
}

; Function Attrs: nounwind
declare void @llvm.lifetime.start(i64, i8* nocapture) #1

; Function Attrs: nounwind
declare i32 @printf(i8* nocapture readonly, ...) #2

; Function Attrs: nounwind
declare i32 @__isoc99_scanf(i8* nocapture readonly, ...) #2

; Function Attrs: nounwind
declare void @llvm.lifetime.end(i64, i8* nocapture) #1

attributes #0 = { nounwind uwtable "disable-tail-calls"="false" "less-precise-fpmad"="false" "no-frame-pointer-elim"="false" "no-infs-fp-math"="false" "no-nans-fp-math"="false" "stack-protector-buffer-size"="8" "target-cpu"="x86-64" "target-features"="+sse,+sse2" "unsafe-fp-math"="false" "use-soft-float"="false" }
attributes #1 = { nounwind }
attributes #2 = { nounwind "disable-tail-calls"="false" "less-precise-fpmad"="false" "no-frame-pointer-elim"="false" "no-infs-fp-math"="false" "no-nans-fp-math"="false" "stack-protector-buffer-size"="8" "target-cpu"="x86-64" "target-features"="+sse,+sse2" "unsafe-fp-math"="false" "use-soft-float"="false" }

!llvm.ident = !{!0}

!0 = !{!"clang version 3.7.0 (tags/RELEASE_370/final)"}
!1 = !{!2, !2, i64 0}
!2 = !{!"omnipotent char", !3, i64 0}
!3 = !{!"Simple C/C++ TBAA"}
