; ModuleID = 'test21.c'
target datalayout = "e-m:e-i64:64-f80:128-n8:16:32:64-S128"
target triple = "x86_64-unknown-linux-gnu"

@.str = private unnamed_addr constant [30 x i8] c"Enter two positive integers: \00", align 1
@.str.1 = private unnamed_addr constant [6 x i8] c"%d %d\00", align 1
@.str.2 = private unnamed_addr constant [28 x i8] c"The LCM of %d and %d is %d.\00", align 1

; Function Attrs: nounwind uwtable
define i32 @main() #0 {
entry:
  %n1 = alloca i32, align 4
  %n2 = alloca i32, align 4
  %0 = bitcast i32* %n1 to i8*
  call void @llvm.lifetime.start(i64 4, i8* %0) #1
  %1 = bitcast i32* %n2 to i8*
  call void @llvm.lifetime.start(i64 4, i8* %1) #1
  %call = tail call i32 (i8*, ...) @printf(i8* getelementptr inbounds ([30 x i8], [30 x i8]* @.str, i64 0, i64 0)) #1
  %call1 = call i32 (i8*, ...) @__isoc99_scanf(i8* getelementptr inbounds ([6 x i8], [6 x i8]* @.str.1, i64 0, i64 0), i32* nonnull %n1, i32* nonnull %n2) #1
  %2 = load i32, i32* %n1, align 4, !tbaa !1
  %3 = load i32, i32* %n2, align 4, !tbaa !1
  %cmp = icmp sgt i32 %2, %3
  %cond = select i1 %cmp, i32 %2, i32 %3
  br label %while.body

while.body:                                       ; preds = %entry, %if.end
  %minMultiple.0 = phi i32 [ %cond, %entry ], [ %inc, %if.end ]
  %rem = srem i32 %minMultiple.0, %2
  %cmp2 = icmp eq i32 %rem, 0
  br i1 %cmp2, label %land.lhs.true, label %if.end

land.lhs.true:                                    ; preds = %while.body
  %rem3 = srem i32 %minMultiple.0, %3
  %cmp4 = icmp eq i32 %rem3, 0
  br i1 %cmp4, label %if.then, label %if.end

if.then:                                          ; preds = %land.lhs.true
  %minMultiple.0.lcssa = phi i32 [ %minMultiple.0, %land.lhs.true ]
  %call5 = call i32 (i8*, ...) @printf(i8* getelementptr inbounds ([28 x i8], [28 x i8]* @.str.2, i64 0, i64 0), i32 %2, i32 %3, i32 %minMultiple.0.lcssa) #1
  call void @llvm.lifetime.end(i64 4, i8* %1) #1
  call void @llvm.lifetime.end(i64 4, i8* %0) #1
  ret i32 0

if.end:                                           ; preds = %land.lhs.true, %while.body
  %inc = add nsw i32 %minMultiple.0, 1
  br label %while.body
}

; Function Attrs: nounwind
declare void @llvm.lifetime.start(i64, i8* nocapture) #1

; Function Attrs: nounwind
declare i32 @printf(i8* nocapture readonly, ...) #2

; Function Attrs: nounwind
declare i32 @__isoc99_scanf(i8* nocapture readonly, ...) #2

; Function Attrs: nounwind
declare void @llvm.lifetime.end(i64, i8* nocapture) #1

attributes #0 = { nounwind uwtable "disable-tail-calls"="false" "less-precise-fpmad"="false" "no-frame-pointer-elim"="false" "no-infs-fp-math"="false" "no-nans-fp-math"="false" "stack-protector-buffer-size"="8" "target-cpu"="x86-64" "target-features"="+sse,+sse2" "unsafe-fp-math"="false" "use-soft-float"="false" }
attributes #1 = { nounwind }
attributes #2 = { nounwind "disable-tail-calls"="false" "less-precise-fpmad"="false" "no-frame-pointer-elim"="false" "no-infs-fp-math"="false" "no-nans-fp-math"="false" "stack-protector-buffer-size"="8" "target-cpu"="x86-64" "target-features"="+sse,+sse2" "unsafe-fp-math"="false" "use-soft-float"="false" }

!llvm.ident = !{!0}

!0 = !{!"clang version 3.7.0 (tags/RELEASE_370/final)"}
!1 = !{!2, !2, i64 0}
!2 = !{!"int", !3, i64 0}
!3 = !{!"omnipotent char", !4, i64 0}
!4 = !{!"Simple C/C++ TBAA"}
