; ModuleID = 'test19.c'
target datalayout = "e-m:e-i64:64-f80:128-n8:16:32:64-S128"
target triple = "x86_64-unknown-linux-gnu"

@.str = private unnamed_addr constant [28 x i8] c"Enter the number of terms: \00", align 1
@.str.1 = private unnamed_addr constant [3 x i8] c"%d\00", align 1
@.str.2 = private unnamed_addr constant [27 x i8] c"Fibonacci Series: %d, %d, \00", align 1
@.str.3 = private unnamed_addr constant [5 x i8] c"%d, \00", align 1

; Function Attrs: nounwind uwtable
define i32 @main() #0 {
entry:
  %n = alloca i32, align 4
  %0 = bitcast i32* %n to i8*
  call void @llvm.lifetime.start(i64 4, i8* %0) #1
  %call = tail call i32 (i8*, ...) @printf(i8* getelementptr inbounds ([28 x i8], [28 x i8]* @.str, i64 0, i64 0)) #1
  %call1 = call i32 (i8*, ...) @__isoc99_scanf(i8* getelementptr inbounds ([3 x i8], [3 x i8]* @.str.1, i64 0, i64 0), i32* nonnull %n) #1
  %call2 = call i32 (i8*, ...) @printf(i8* getelementptr inbounds ([27 x i8], [27 x i8]* @.str.2, i64 0, i64 0), i32 0, i32 1) #1
  %1 = load i32, i32* %n, align 4, !tbaa !1
  %cmp.13 = icmp slt i32 %1, 3
  br i1 %cmp.13, label %for.end, label %for.body.preheader

for.body.preheader:                               ; preds = %entry
  br label %for.body

for.body:                                         ; preds = %for.body.preheader, %for.body
  %t2.016 = phi i32 [ %add, %for.body ], [ 1, %for.body.preheader ]
  %t1.015 = phi i32 [ %t2.016, %for.body ], [ 0, %for.body.preheader ]
  %i.014 = phi i32 [ %inc, %for.body ], [ 3, %for.body.preheader ]
  %add = add nsw i32 %t2.016, %t1.015
  %call3 = call i32 (i8*, ...) @printf(i8* getelementptr inbounds ([5 x i8], [5 x i8]* @.str.3, i64 0, i64 0), i32 %add) #1
  %inc = add nuw nsw i32 %i.014, 1
  %2 = load i32, i32* %n, align 4, !tbaa !1
  %cmp = icmp slt i32 %i.014, %2
  br i1 %cmp, label %for.body, label %for.end.loopexit

for.end.loopexit:                                 ; preds = %for.body
  br label %for.end

for.end:                                          ; preds = %for.end.loopexit, %entry
  call void @llvm.lifetime.end(i64 4, i8* %0) #1
  ret i32 0
}

; Function Attrs: nounwind
declare void @llvm.lifetime.start(i64, i8* nocapture) #1

; Function Attrs: nounwind
declare i32 @printf(i8* nocapture readonly, ...) #2

; Function Attrs: nounwind
declare i32 @__isoc99_scanf(i8* nocapture readonly, ...) #2

; Function Attrs: nounwind
declare void @llvm.lifetime.end(i64, i8* nocapture) #1

attributes #0 = { nounwind uwtable "disable-tail-calls"="false" "less-precise-fpmad"="false" "no-frame-pointer-elim"="false" "no-infs-fp-math"="false" "no-nans-fp-math"="false" "stack-protector-buffer-size"="8" "target-cpu"="x86-64" "target-features"="+sse,+sse2" "unsafe-fp-math"="false" "use-soft-float"="false" }
attributes #1 = { nounwind }
attributes #2 = { nounwind "disable-tail-calls"="false" "less-precise-fpmad"="false" "no-frame-pointer-elim"="false" "no-infs-fp-math"="false" "no-nans-fp-math"="false" "stack-protector-buffer-size"="8" "target-cpu"="x86-64" "target-features"="+sse,+sse2" "unsafe-fp-math"="false" "use-soft-float"="false" }

!llvm.ident = !{!0}

!0 = !{!"clang version 3.7.0 (tags/RELEASE_370/final)"}
!1 = !{!2, !2, i64 0}
!2 = !{!"int", !3, i64 0}
!3 = !{!"omnipotent char", !4, i64 0}
!4 = !{!"Simple C/C++ TBAA"}
