; ModuleID = 'test38.bc'

@.str = private constant [27 x i8] c"Enter a positive integer: \00", align 1
@.str.1 = private constant [3 x i8] c"%d\00", align 1
@.str.2 = private constant [22 x i8] c"Factorial of %d = %ld\00", align 1

define i32 @main() {
entry:
  %_temp_dummy10_5 = alloca i32, align 4
  %_temp_dummy11_6 = alloca i32, align 4
  %_temp_dummy12_7 = alloca i32, align 4
  %n_4 = alloca i32, align 4
  %0 = bitcast i8* getelementptr inbounds ([27 x i8], [27 x i8]* @.str, i32 0, i32 0) to i8*
  %call1 = call i32 (i8*, ...) @printf(i8* %0)
  %1 = bitcast i8* getelementptr inbounds ([3 x i8], [3 x i8]* @.str.1, i32 0, i32 0) to i8*
  %2 = bitcast i32* %n_4 to i32*
  %call2 = call i32 (i8*, ...) @scanf(i8* %1, i32* %2)
  %3 = bitcast i8* getelementptr inbounds ([22 x i8], [22 x i8]* @.str.2, i32 0, i32 0) to i8*
  %4 = load i32, i32* %n_4, align 4
  %5 = load i32, i32* %n_4, align 4
  %call3 = call i64 @_Z15multiplyNumbersi(i32 %5)
  %call4 = call i32 (i8*, ...) @printf(i8* %3, i32 %4, i64 %call3)
  ret i32 0
}

declare i32 @printf(i8*, ...)

declare i32 @scanf(i8*, ...)

define i64 @_Z15multiplyNumbersi(i32 %n_4) {
entry:
  %_temp_dummy13_5 = alloca i32, align 4
  %n_4.addr = alloca i32, align 4
  store i32 %n_4, i32* %n_4.addr, align 4
  %0 = load i32, i32* %n_4.addr, align 4
  %cmp1 = icmp sgt i32 %0, 0
  br i1 %cmp1, label %if.then, label %if.else

if.then:                                          ; preds = %entry
  %1 = load i32, i32* %n_4.addr, align 4
  %conv3 = sext i32 %1 to i64
  %2 = load i32, i32* %n_4.addr, align 4
  %add = sub i32 %2, 1
  %call5 = call i64 @_Z15multiplyNumbersi(i32 %add)
  %mul = mul i64 %conv3, %call5
  ret i64 %mul

if.else:                                          ; preds = %entry
  ret i64 1
}
