; ModuleID = 'test666.c'
target datalayout = "e-m:e-i64:64-f80:128-n8:16:32:64-S128"
target triple = "x86_64-unknown-linux-gnu"

@str = private unnamed_addr constant [14 x i8] c"hello world 1\00"
@str.2 = private unnamed_addr constant [14 x i8] c"hello world 2\00"

; Function Attrs: nounwind uwtable
define i32 @main() #0 {
entry:
  %puts = tail call i32 @puts(i8* getelementptr inbounds ([14 x i8], [14 x i8]* @str, i64 0, i64 0))
  %puts11 = tail call i32 @puts(i8* getelementptr inbounds ([14 x i8], [14 x i8]* @str.2, i64 0, i64 0))
  ret i32 0
}

; Function Attrs: nounwind
declare i32 @puts(i8* nocapture readonly) #1

attributes #0 = { nounwind uwtable "disable-tail-calls"="false" "less-precise-fpmad"="false" "no-frame-pointer-elim"="false" "no-infs-fp-math"="false" "no-nans-fp-math"="false" "stack-protector-buffer-size"="8" "target-cpu"="x86-64" "target-features"="+sse,+sse2" "unsafe-fp-math"="false" "use-soft-float"="false" }
attributes #1 = { nounwind }

!llvm.ident = !{!0}

!0 = !{!"clang version 3.7.0 (tags/RELEASE_370/final)"}
