; ModuleID = 'test44.c'
target datalayout = "e-m:e-i64:64-f80:128-n8:16:32:64-S128"
target triple = "x86_64-unknown-linux-gnu"

@.str = private unnamed_addr constant [20 x i8] c"Enter base number: \00", align 1
@.str.1 = private unnamed_addr constant [3 x i8] c"%d\00", align 1
@.str.2 = private unnamed_addr constant [39 x i8] c"Enter power number(positive integer): \00", align 1
@.str.3 = private unnamed_addr constant [11 x i8] c"%d^%d = %d\00", align 1

; Function Attrs: nounwind uwtable
define i32 @main() #0 {
entry:
  %retval = alloca i32, align 4
  %base = alloca i32, align 4
  %exp = alloca i32, align 4
  store i32 0, i32* %retval
  %call = call i32 (i8*, ...) @printf(i8* getelementptr inbounds ([20 x i8], [20 x i8]* @.str, i32 0, i32 0))
  %call1 = call i32 (i8*, ...) @__isoc99_scanf(i8* getelementptr inbounds ([3 x i8], [3 x i8]* @.str.1, i32 0, i32 0), i32* %base)
  %call2 = call i32 (i8*, ...) @printf(i8* getelementptr inbounds ([39 x i8], [39 x i8]* @.str.2, i32 0, i32 0))
  %call3 = call i32 (i8*, ...) @__isoc99_scanf(i8* getelementptr inbounds ([3 x i8], [3 x i8]* @.str.1, i32 0, i32 0), i32* %exp)
  %0 = load i32, i32* %base, align 4
  %1 = load i32, i32* %exp, align 4
  %2 = load i32, i32* %base, align 4
  %3 = load i32, i32* %exp, align 4
  %call4 = call i32 @power(i32 %2, i32 %3)
  %call5 = call i32 (i8*, ...) @printf(i8* getelementptr inbounds ([11 x i8], [11 x i8]* @.str.3, i32 0, i32 0), i32 %0, i32 %1, i32 %call4)
  ret i32 0
}

declare i32 @printf(i8*, ...) #1

declare i32 @__isoc99_scanf(i8*, ...) #1

; Function Attrs: nounwind uwtable
define i32 @power(i32 %base, i32 %exp) #0 {
entry:
  %retval = alloca i32, align 4
  %base.addr = alloca i32, align 4
  %exp.addr = alloca i32, align 4
  store i32 %base, i32* %base.addr, align 4
  store i32 %exp, i32* %exp.addr, align 4
  %0 = load i32, i32* %exp.addr, align 4
  %cmp = icmp ne i32 %0, 1
  br i1 %cmp, label %if.then, label %if.else

if.then:                                          ; preds = %entry
  %1 = load i32, i32* %base.addr, align 4
  %2 = load i32, i32* %base.addr, align 4
  %3 = load i32, i32* %exp.addr, align 4
  %sub = sub nsw i32 %3, 1
  %call = call i32 @power(i32 %2, i32 %sub)
  %mul = mul nsw i32 %1, %call
  store i32 %mul, i32* %retval
  br label %return

if.else:                                          ; preds = %entry
  %4 = load i32, i32* %base.addr, align 4
  store i32 %4, i32* %retval
  br label %return

return:                                           ; preds = %if.else, %if.then
  %5 = load i32, i32* %retval
  ret i32 %5
}

attributes #0 = { nounwind uwtable "disable-tail-calls"="false" "less-precise-fpmad"="false" "no-frame-pointer-elim"="true" "no-frame-pointer-elim-non-leaf" "no-infs-fp-math"="false" "no-nans-fp-math"="false" "stack-protector-buffer-size"="8" "target-cpu"="x86-64" "target-features"="+sse,+sse2" "unsafe-fp-math"="false" "use-soft-float"="false" }
attributes #1 = { "disable-tail-calls"="false" "less-precise-fpmad"="false" "no-frame-pointer-elim"="true" "no-frame-pointer-elim-non-leaf" "no-infs-fp-math"="false" "no-nans-fp-math"="false" "stack-protector-buffer-size"="8" "target-cpu"="x86-64" "target-features"="+sse,+sse2" "unsafe-fp-math"="false" "use-soft-float"="false" }

!llvm.ident = !{!0}

!0 = !{!"clang version 3.7.0 (tags/RELEASE_370/final)"}
