; ModuleID = 'test27.c'
target datalayout = "e-m:e-i64:64-f80:128-n8:16:32:64-S128"
target triple = "x86_64-unknown-linux-gnu"

@.str = private unnamed_addr constant [27 x i8] c"Enter a positive integer: \00", align 1
@.str.1 = private unnamed_addr constant [3 x i8] c"%d\00", align 1
@.str.2 = private unnamed_addr constant [22 x i8] c"%d is a prime number.\00", align 1
@.str.3 = private unnamed_addr constant [26 x i8] c"%d is not a prime number.\00", align 1

; Function Attrs: nounwind uwtable
define i32 @main() #0 {
entry:
  %retval = alloca i32, align 4
  %n = alloca i32, align 4
  %i = alloca i32, align 4
  %flag = alloca i32, align 4
  store i32 0, i32* %retval
  store i32 0, i32* %flag, align 4
  %call = call i32 (i8*, ...) @printf(i8* getelementptr inbounds ([27 x i8], [27 x i8]* @.str, i32 0, i32 0))
  %call1 = call i32 (i8*, ...) @__isoc99_scanf(i8* getelementptr inbounds ([3 x i8], [3 x i8]* @.str.1, i32 0, i32 0), i32* %n)
  store i32 2, i32* %i, align 4
  br label %for.cond

for.cond:                                         ; preds = %for.inc, %entry
  %0 = load i32, i32* %i, align 4
  %1 = load i32, i32* %n, align 4
  %div = sdiv i32 %1, 2
  %cmp = icmp sle i32 %0, %div
  br i1 %cmp, label %for.body, label %for.end

for.body:                                         ; preds = %for.cond
  %2 = load i32, i32* %n, align 4
  %3 = load i32, i32* %i, align 4
  %rem = srem i32 %2, %3
  %cmp2 = icmp eq i32 %rem, 0
  br i1 %cmp2, label %if.then, label %if.end

if.then:                                          ; preds = %for.body
  store i32 1, i32* %flag, align 4
  br label %for.end

if.end:                                           ; preds = %for.body
  br label %for.inc

for.inc:                                          ; preds = %if.end
  %4 = load i32, i32* %i, align 4
  %inc = add nsw i32 %4, 1
  store i32 %inc, i32* %i, align 4
  br label %for.cond

for.end:                                          ; preds = %if.then, %for.cond
  %5 = load i32, i32* %flag, align 4
  %cmp3 = icmp eq i32 %5, 0
  br i1 %cmp3, label %if.then.4, label %if.else

if.then.4:                                        ; preds = %for.end
  %6 = load i32, i32* %n, align 4
  %call5 = call i32 (i8*, ...) @printf(i8* getelementptr inbounds ([22 x i8], [22 x i8]* @.str.2, i32 0, i32 0), i32 %6)
  br label %if.end.7

if.else:                                          ; preds = %for.end
  %7 = load i32, i32* %n, align 4
  %call6 = call i32 (i8*, ...) @printf(i8* getelementptr inbounds ([26 x i8], [26 x i8]* @.str.3, i32 0, i32 0), i32 %7)
  br label %if.end.7

if.end.7:                                         ; preds = %if.else, %if.then.4
  ret i32 0
}

declare i32 @printf(i8*, ...) #1

declare i32 @__isoc99_scanf(i8*, ...) #1

attributes #0 = { nounwind uwtable "disable-tail-calls"="false" "less-precise-fpmad"="false" "no-frame-pointer-elim"="true" "no-frame-pointer-elim-non-leaf" "no-infs-fp-math"="false" "no-nans-fp-math"="false" "stack-protector-buffer-size"="8" "target-cpu"="x86-64" "target-features"="+sse,+sse2" "unsafe-fp-math"="false" "use-soft-float"="false" }
attributes #1 = { "disable-tail-calls"="false" "less-precise-fpmad"="false" "no-frame-pointer-elim"="true" "no-frame-pointer-elim-non-leaf" "no-infs-fp-math"="false" "no-nans-fp-math"="false" "stack-protector-buffer-size"="8" "target-cpu"="x86-64" "target-features"="+sse,+sse2" "unsafe-fp-math"="false" "use-soft-float"="false" }

!llvm.ident = !{!0}

!0 = !{!"clang version 3.7.0 (tags/RELEASE_370/final)"}
