; ModuleID = 'test7.c'
target datalayout = "e-m:e-i64:64-f80:128-n8:16:32:64-S128"
target triple = "x86_64-unknown-linux-gnu"

@.str = private unnamed_addr constant [26 x i8] c"Size of int = %ld bytes \0A\00", align 1
@.str.1 = private unnamed_addr constant [26 x i8] c"Size of long = %ld bytes\0A\00", align 1
@.str.2 = private unnamed_addr constant [31 x i8] c"Size of long long = %ld bytes\0A\00", align 1
@.str.3 = private unnamed_addr constant [28 x i8] c"Size of double = %ld bytes\0A\00", align 1
@.str.4 = private unnamed_addr constant [33 x i8] c"Size of long double = %ld bytes\0A\00", align 1

; Function Attrs: nounwind uwtable
define i32 @main() #0 {
entry:
  %call = tail call i32 (i8*, ...) @printf(i8* getelementptr inbounds ([26 x i8], [26 x i8]* @.str, i64 0, i64 0), i64 4) #2
  %call1 = tail call i32 (i8*, ...) @printf(i8* getelementptr inbounds ([26 x i8], [26 x i8]* @.str.1, i64 0, i64 0), i64 8) #2
  %call2 = tail call i32 (i8*, ...) @printf(i8* getelementptr inbounds ([31 x i8], [31 x i8]* @.str.2, i64 0, i64 0), i64 8) #2
  %call3 = tail call i32 (i8*, ...) @printf(i8* getelementptr inbounds ([28 x i8], [28 x i8]* @.str.3, i64 0, i64 0), i64 8) #2
  %call4 = tail call i32 (i8*, ...) @printf(i8* getelementptr inbounds ([33 x i8], [33 x i8]* @.str.4, i64 0, i64 0), i64 16) #2
  ret i32 0
}

; Function Attrs: nounwind
declare i32 @printf(i8* nocapture readonly, ...) #1

attributes #0 = { nounwind uwtable "disable-tail-calls"="false" "less-precise-fpmad"="false" "no-frame-pointer-elim"="false" "no-infs-fp-math"="false" "no-nans-fp-math"="false" "stack-protector-buffer-size"="8" "target-cpu"="x86-64" "target-features"="+sse,+sse2" "unsafe-fp-math"="false" "use-soft-float"="false" }
attributes #1 = { nounwind "disable-tail-calls"="false" "less-precise-fpmad"="false" "no-frame-pointer-elim"="false" "no-infs-fp-math"="false" "no-nans-fp-math"="false" "stack-protector-buffer-size"="8" "target-cpu"="x86-64" "target-features"="+sse,+sse2" "unsafe-fp-math"="false" "use-soft-float"="false" }
attributes #2 = { nounwind }

!llvm.ident = !{!0}

!0 = !{!"clang version 3.7.0 (tags/RELEASE_370/final)"}
