; ModuleID = 'test9.c'
target datalayout = "e-m:e-i64:64-f80:128-n8:16:32:64-S128"
target triple = "x86_64-unknown-linux-gnu"

@.str = private unnamed_addr constant [19 x i8] c"Enter an integer: \00", align 1
@.str.1 = private unnamed_addr constant [3 x i8] c"%d\00", align 1
@.str.2 = private unnamed_addr constant [12 x i8] c"%d is even.\00", align 1
@.str.3 = private unnamed_addr constant [11 x i8] c"%d is odd.\00", align 1

; Function Attrs: nounwind uwtable
define i32 @main() #0 {
entry:
  %retval = alloca i32, align 4
  %number = alloca i32, align 4
  store i32 0, i32* %retval
  %call = call i32 (i8*, ...) @printf(i8* getelementptr inbounds ([19 x i8], [19 x i8]* @.str, i32 0, i32 0))
  %call1 = call i32 (i8*, ...) @__isoc99_scanf(i8* getelementptr inbounds ([3 x i8], [3 x i8]* @.str.1, i32 0, i32 0), i32* %number)
  %0 = load i32, i32* %number, align 4
  %rem = srem i32 %0, 2
  %cmp = icmp eq i32 %rem, 0
  br i1 %cmp, label %if.then, label %if.else

if.then:                                          ; preds = %entry
  %1 = load i32, i32* %number, align 4
  %call2 = call i32 (i8*, ...) @printf(i8* getelementptr inbounds ([12 x i8], [12 x i8]* @.str.2, i32 0, i32 0), i32 %1)
  br label %if.end

if.else:                                          ; preds = %entry
  %2 = load i32, i32* %number, align 4
  %call3 = call i32 (i8*, ...) @printf(i8* getelementptr inbounds ([11 x i8], [11 x i8]* @.str.3, i32 0, i32 0), i32 %2)
  br label %if.end

if.end:                                           ; preds = %if.else, %if.then
  ret i32 0
}

declare i32 @printf(i8*, ...) #1

declare i32 @__isoc99_scanf(i8*, ...) #1

attributes #0 = { nounwind uwtable "disable-tail-calls"="false" "less-precise-fpmad"="false" "no-frame-pointer-elim"="true" "no-frame-pointer-elim-non-leaf" "no-infs-fp-math"="false" "no-nans-fp-math"="false" "stack-protector-buffer-size"="8" "target-cpu"="x86-64" "target-features"="+sse,+sse2" "unsafe-fp-math"="false" "use-soft-float"="false" }
attributes #1 = { "disable-tail-calls"="false" "less-precise-fpmad"="false" "no-frame-pointer-elim"="true" "no-frame-pointer-elim-non-leaf" "no-infs-fp-math"="false" "no-nans-fp-math"="false" "stack-protector-buffer-size"="8" "target-cpu"="x86-64" "target-features"="+sse,+sse2" "unsafe-fp-math"="false" "use-soft-float"="false" }

!llvm.ident = !{!0}

!0 = !{!"clang version 3.7.0 (tags/RELEASE_370/final)"}
