; ModuleID = 'test18.c'
target datalayout = "e-m:e-i64:64-f80:128-n8:16:32:64-S128"
target triple = "x86_64-unknown-linux-gnu"

@.str = private unnamed_addr constant [19 x i8] c"Enter an integer: \00", align 1
@.str.1 = private unnamed_addr constant [3 x i8] c"%d\00", align 1
@.str.2 = private unnamed_addr constant [15 x i8] c"%d * %d = %d \0A\00", align 1

; Function Attrs: nounwind uwtable
define i32 @main() #0 {
entry:
  %retval = alloca i32, align 4
  %n = alloca i32, align 4
  %i = alloca i32, align 4
  store i32 0, i32* %retval
  %call = call i32 (i8*, ...) @printf(i8* getelementptr inbounds ([19 x i8], [19 x i8]* @.str, i32 0, i32 0))
  %call1 = call i32 (i8*, ...) @__isoc99_scanf(i8* getelementptr inbounds ([3 x i8], [3 x i8]* @.str.1, i32 0, i32 0), i32* %n)
  store i32 1, i32* %i, align 4
  br label %for.cond

for.cond:                                         ; preds = %for.inc, %entry
  %0 = load i32, i32* %i, align 4
  %cmp = icmp sle i32 %0, 10
  br i1 %cmp, label %for.body, label %for.end

for.body:                                         ; preds = %for.cond
  %1 = load i32, i32* %n, align 4
  %2 = load i32, i32* %i, align 4
  %3 = load i32, i32* %n, align 4
  %4 = load i32, i32* %i, align 4
  %mul = mul nsw i32 %3, %4
  %call2 = call i32 (i8*, ...) @printf(i8* getelementptr inbounds ([15 x i8], [15 x i8]* @.str.2, i32 0, i32 0), i32 %1, i32 %2, i32 %mul)
  br label %for.inc

for.inc:                                          ; preds = %for.body
  %5 = load i32, i32* %i, align 4
  %inc = add nsw i32 %5, 1
  store i32 %inc, i32* %i, align 4
  br label %for.cond

for.end:                                          ; preds = %for.cond
  ret i32 0
}

declare i32 @printf(i8*, ...) #1

declare i32 @__isoc99_scanf(i8*, ...) #1

attributes #0 = { nounwind uwtable "disable-tail-calls"="false" "less-precise-fpmad"="false" "no-frame-pointer-elim"="true" "no-frame-pointer-elim-non-leaf" "no-infs-fp-math"="false" "no-nans-fp-math"="false" "stack-protector-buffer-size"="8" "target-cpu"="x86-64" "target-features"="+sse,+sse2" "unsafe-fp-math"="false" "use-soft-float"="false" }
attributes #1 = { "disable-tail-calls"="false" "less-precise-fpmad"="false" "no-frame-pointer-elim"="true" "no-frame-pointer-elim-non-leaf" "no-infs-fp-math"="false" "no-nans-fp-math"="false" "stack-protector-buffer-size"="8" "target-cpu"="x86-64" "target-features"="+sse,+sse2" "unsafe-fp-math"="false" "use-soft-float"="false" }

!llvm.ident = !{!0}

!0 = !{!"clang version 3.7.0 (tags/RELEASE_370/final)"}
