; ModuleID = 'test70.c'
target datalayout = "e-m:e-i64:64-f80:128-n8:16:32:64-S128"
target triple = "x86_64-unknown-linux-gnu"

@.str = private unnamed_addr constant [27 x i8] c"Enter the number of rows: \00", align 1
@.str.1 = private unnamed_addr constant [3 x i8] c"%d\00", align 1
@.str.2 = private unnamed_addr constant [3 x i8] c"* \00", align 1
@.str.3 = private unnamed_addr constant [2 x i8] c"\0A\00", align 1

; Function Attrs: nounwind uwtable
define i32 @main() #0 {
entry:
  %retval = alloca i32, align 4
  %i = alloca i32, align 4
  %j = alloca i32, align 4
  %rows = alloca i32, align 4
  store i32 0, i32* %retval
  %call = call i32 (i8*, ...) @printf(i8* getelementptr inbounds ([27 x i8], [27 x i8]* @.str, i32 0, i32 0))
  %call1 = call i32 (i8*, ...) @__isoc99_scanf(i8* getelementptr inbounds ([3 x i8], [3 x i8]* @.str.1, i32 0, i32 0), i32* %rows)
  store i32 1, i32* %i, align 4
  br label %for.cond

for.cond:                                         ; preds = %for.inc.7, %entry
  %0 = load i32, i32* %i, align 4
  %1 = load i32, i32* %rows, align 4
  %cmp = icmp sle i32 %0, %1
  br i1 %cmp, label %for.body, label %for.end.9

for.body:                                         ; preds = %for.cond
  store i32 1, i32* %j, align 4
  br label %for.cond.2

for.cond.2:                                       ; preds = %for.inc, %for.body
  %2 = load i32, i32* %j, align 4
  %3 = load i32, i32* %i, align 4
  %cmp3 = icmp sle i32 %2, %3
  br i1 %cmp3, label %for.body.4, label %for.end

for.body.4:                                       ; preds = %for.cond.2
  %call5 = call i32 (i8*, ...) @printf(i8* getelementptr inbounds ([3 x i8], [3 x i8]* @.str.2, i32 0, i32 0))
  br label %for.inc

for.inc:                                          ; preds = %for.body.4
  %4 = load i32, i32* %j, align 4
  %inc = add nsw i32 %4, 1
  store i32 %inc, i32* %j, align 4
  br label %for.cond.2

for.end:                                          ; preds = %for.cond.2
  %call6 = call i32 (i8*, ...) @printf(i8* getelementptr inbounds ([2 x i8], [2 x i8]* @.str.3, i32 0, i32 0))
  br label %for.inc.7

for.inc.7:                                        ; preds = %for.end
  %5 = load i32, i32* %i, align 4
  %inc8 = add nsw i32 %5, 1
  store i32 %inc8, i32* %i, align 4
  br label %for.cond

for.end.9:                                        ; preds = %for.cond
  ret i32 0
}

declare i32 @printf(i8*, ...) #1

declare i32 @__isoc99_scanf(i8*, ...) #1

attributes #0 = { nounwind uwtable "disable-tail-calls"="false" "less-precise-fpmad"="false" "no-frame-pointer-elim"="true" "no-frame-pointer-elim-non-leaf" "no-infs-fp-math"="false" "no-nans-fp-math"="false" "stack-protector-buffer-size"="8" "target-cpu"="x86-64" "target-features"="+sse,+sse2" "unsafe-fp-math"="false" "use-soft-float"="false" }
attributes #1 = { "disable-tail-calls"="false" "less-precise-fpmad"="false" "no-frame-pointer-elim"="true" "no-frame-pointer-elim-non-leaf" "no-infs-fp-math"="false" "no-nans-fp-math"="false" "stack-protector-buffer-size"="8" "target-cpu"="x86-64" "target-features"="+sse,+sse2" "unsafe-fp-math"="false" "use-soft-float"="false" }

!llvm.ident = !{!0}

!0 = !{!"clang version 3.7.0 (tags/RELEASE_370/final)"}
