; ModuleID = 'test31.c'
target datalayout = "e-m:e-i64:64-f80:128-n8:16:32:64-S128"
target triple = "x86_64-unknown-linux-gnu"

@.str = private unnamed_addr constant [27 x i8] c"Enter a positive integer: \00", align 1
@.str.1 = private unnamed_addr constant [3 x i8] c"%d\00", align 1
@.str.2 = private unnamed_addr constant [20 x i8] c"Factors of %d are: \00", align 1
@.str.3 = private unnamed_addr constant [4 x i8] c"%d \00", align 1

; Function Attrs: nounwind uwtable
define i32 @main() #0 {
entry:
  %number = alloca i32, align 4
  %0 = bitcast i32* %number to i8*
  call void @llvm.lifetime.start(i64 4, i8* %0) #1
  %call = tail call i32 (i8*, ...) @printf(i8* getelementptr inbounds ([27 x i8], [27 x i8]* @.str, i64 0, i64 0)) #1
  %call1 = call i32 (i8*, ...) @__isoc99_scanf(i8* getelementptr inbounds ([3 x i8], [3 x i8]* @.str.1, i64 0, i64 0), i32* nonnull %number) #1
  %1 = load i32, i32* %number, align 4, !tbaa !1
  %call2 = call i32 (i8*, ...) @printf(i8* getelementptr inbounds ([20 x i8], [20 x i8]* @.str.2, i64 0, i64 0), i32 %1) #1
  %2 = load i32, i32* %number, align 4, !tbaa !1
  %cmp.9 = icmp slt i32 %2, 1
  br i1 %cmp.9, label %for.end, label %for.body.preheader

for.body.preheader:                               ; preds = %entry
  br label %for.body

for.body:                                         ; preds = %for.body.preheader, %for.inc
  %3 = phi i32 [ %4, %for.inc ], [ %2, %for.body.preheader ]
  %i.010 = phi i32 [ %inc, %for.inc ], [ 1, %for.body.preheader ]
  %rem = srem i32 %3, %i.010
  %cmp3 = icmp eq i32 %rem, 0
  br i1 %cmp3, label %if.then, label %for.inc

if.then:                                          ; preds = %for.body
  %call4 = call i32 (i8*, ...) @printf(i8* getelementptr inbounds ([4 x i8], [4 x i8]* @.str.3, i64 0, i64 0), i32 %i.010) #1
  %.pre = load i32, i32* %number, align 4, !tbaa !1
  br label %for.inc

for.inc:                                          ; preds = %for.body, %if.then
  %4 = phi i32 [ %3, %for.body ], [ %.pre, %if.then ]
  %inc = add nuw nsw i32 %i.010, 1
  %cmp = icmp slt i32 %i.010, %4
  br i1 %cmp, label %for.body, label %for.end.loopexit

for.end.loopexit:                                 ; preds = %for.inc
  br label %for.end

for.end:                                          ; preds = %for.end.loopexit, %entry
  call void @llvm.lifetime.end(i64 4, i8* %0) #1
  ret i32 0
}

; Function Attrs: nounwind
declare void @llvm.lifetime.start(i64, i8* nocapture) #1

; Function Attrs: nounwind
declare i32 @printf(i8* nocapture readonly, ...) #2

; Function Attrs: nounwind
declare i32 @__isoc99_scanf(i8* nocapture readonly, ...) #2

; Function Attrs: nounwind
declare void @llvm.lifetime.end(i64, i8* nocapture) #1

attributes #0 = { nounwind uwtable "disable-tail-calls"="false" "less-precise-fpmad"="false" "no-frame-pointer-elim"="false" "no-infs-fp-math"="false" "no-nans-fp-math"="false" "stack-protector-buffer-size"="8" "target-cpu"="x86-64" "target-features"="+sse,+sse2" "unsafe-fp-math"="false" "use-soft-float"="false" }
attributes #1 = { nounwind }
attributes #2 = { nounwind "disable-tail-calls"="false" "less-precise-fpmad"="false" "no-frame-pointer-elim"="false" "no-infs-fp-math"="false" "no-nans-fp-math"="false" "stack-protector-buffer-size"="8" "target-cpu"="x86-64" "target-features"="+sse,+sse2" "unsafe-fp-math"="false" "use-soft-float"="false" }

!llvm.ident = !{!0}

!0 = !{!"clang version 3.7.0 (tags/RELEASE_370/final)"}
!1 = !{!2, !2, i64 0}
!2 = !{!"int", !3, i64 0}
!3 = !{!"omnipotent char", !4, i64 0}
!4 = !{!"Simple C/C++ TBAA"}
