; ModuleID = 'test32.c'
target datalayout = "e-m:e-i64:64-f80:128-n8:16:32:64-S128"
target triple = "x86_64-unknown-linux-gnu"

@.str = private unnamed_addr constant [27 x i8] c"Enter the number of rows: \00", align 1
@.str.1 = private unnamed_addr constant [3 x i8] c"%d\00", align 1
@.str.2 = private unnamed_addr constant [4 x i8] c"%d \00", align 1

; Function Attrs: nounwind uwtable
define i32 @main() #0 {
entry:
  %rows = alloca i32, align 4
  %0 = bitcast i32* %rows to i8*
  call void @llvm.lifetime.start(i64 4, i8* %0) #1
  %call = tail call i32 (i8*, ...) @printf(i8* getelementptr inbounds ([27 x i8], [27 x i8]* @.str, i64 0, i64 0)) #1
  %call1 = call i32 (i8*, ...) @__isoc99_scanf(i8* getelementptr inbounds ([3 x i8], [3 x i8]* @.str.1, i64 0, i64 0), i32* nonnull %rows) #1
  %1 = load i32, i32* %rows, align 4, !tbaa !1
  %cmp.18 = icmp slt i32 %1, 1
  br i1 %cmp.18, label %for.end.9, label %for.body.4.lr.ph.preheader

for.body.4.lr.ph.preheader:                       ; preds = %entry
  br label %for.body.4.lr.ph

for.body.4.lr.ph:                                 ; preds = %for.body.4.lr.ph.preheader, %for.end
  %indvars.iv = phi i32 [ %indvars.iv.next, %for.end ], [ 2, %for.body.4.lr.ph.preheader ]
  %i.019 = phi i32 [ %inc8, %for.end ], [ 1, %for.body.4.lr.ph.preheader ]
  br label %for.body.4

for.body.4:                                       ; preds = %for.body.4, %for.body.4.lr.ph
  %j.017 = phi i32 [ 1, %for.body.4.lr.ph ], [ %inc, %for.body.4 ]
  %call5 = call i32 (i8*, ...) @printf(i8* getelementptr inbounds ([4 x i8], [4 x i8]* @.str.2, i64 0, i64 0), i32 %j.017) #1
  %inc = add nuw nsw i32 %j.017, 1
  %exitcond = icmp eq i32 %inc, %indvars.iv
  br i1 %exitcond, label %for.end, label %for.body.4

for.end:                                          ; preds = %for.body.4
  %putchar = call i32 @putchar(i32 10) #1
  %inc8 = add nuw nsw i32 %i.019, 1
  %2 = load i32, i32* %rows, align 4, !tbaa !1
  %cmp = icmp slt i32 %i.019, %2
  %indvars.iv.next = add nuw i32 %indvars.iv, 1
  br i1 %cmp, label %for.body.4.lr.ph, label %for.end.9.loopexit

for.end.9.loopexit:                               ; preds = %for.end
  br label %for.end.9

for.end.9:                                        ; preds = %for.end.9.loopexit, %entry
  call void @llvm.lifetime.end(i64 4, i8* %0) #1
  ret i32 0
}

; Function Attrs: nounwind
declare void @llvm.lifetime.start(i64, i8* nocapture) #1

; Function Attrs: nounwind
declare i32 @printf(i8* nocapture readonly, ...) #2

; Function Attrs: nounwind
declare i32 @__isoc99_scanf(i8* nocapture readonly, ...) #2

; Function Attrs: nounwind
declare void @llvm.lifetime.end(i64, i8* nocapture) #1

; Function Attrs: nounwind
declare i32 @putchar(i32) #1

attributes #0 = { nounwind uwtable "disable-tail-calls"="false" "less-precise-fpmad"="false" "no-frame-pointer-elim"="false" "no-infs-fp-math"="false" "no-nans-fp-math"="false" "stack-protector-buffer-size"="8" "target-cpu"="x86-64" "target-features"="+sse,+sse2" "unsafe-fp-math"="false" "use-soft-float"="false" }
attributes #1 = { nounwind }
attributes #2 = { nounwind "disable-tail-calls"="false" "less-precise-fpmad"="false" "no-frame-pointer-elim"="false" "no-infs-fp-math"="false" "no-nans-fp-math"="false" "stack-protector-buffer-size"="8" "target-cpu"="x86-64" "target-features"="+sse,+sse2" "unsafe-fp-math"="false" "use-soft-float"="false" }

!llvm.ident = !{!0}

!0 = !{!"clang version 3.7.0 (tags/RELEASE_370/final)"}
!1 = !{!2, !2, i64 0}
!2 = !{!"int", !3, i64 0}
!3 = !{!"omnipotent char", !4, i64 0}
!4 = !{!"Simple C/C++ TBAA"}
