; ModuleID = 'test58.c'
target datalayout = "e-m:e-i64:64-f80:128-n8:16:32:64-S128"
target triple = "x86_64-unknown-linux-gnu"

@.str = private unnamed_addr constant [17 x i8] c"Enter a string: \00", align 1
@.str.1 = private unnamed_addr constant [3 x i8] c"%s\00", align 1
@.str.2 = private unnamed_addr constant [21 x i8] c"Length of string: %d\00", align 1

; Function Attrs: nounwind uwtable
define i32 @main() #0 {
entry:
  %retval = alloca i32, align 4
  %s = alloca [1000 x i8], align 16
  %i = alloca i8, align 1
  store i32 0, i32* %retval
  %call = call i32 (i8*, ...) @printf(i8* getelementptr inbounds ([17 x i8], [17 x i8]* @.str, i32 0, i32 0))
  %arraydecay = getelementptr inbounds [1000 x i8], [1000 x i8]* %s, i32 0, i32 0
  %call1 = call i32 (i8*, ...) @__isoc99_scanf(i8* getelementptr inbounds ([3 x i8], [3 x i8]* @.str.1, i32 0, i32 0), i8* %arraydecay)
  store i8 0, i8* %i, align 1
  br label %for.cond

for.cond:                                         ; preds = %for.inc, %entry
  %0 = load i8, i8* %i, align 1
  %idxprom = sext i8 %0 to i64
  %arrayidx = getelementptr inbounds [1000 x i8], [1000 x i8]* %s, i32 0, i64 %idxprom
  %1 = load i8, i8* %arrayidx, align 1
  %conv = sext i8 %1 to i32
  %cmp = icmp ne i32 %conv, 0
  br i1 %cmp, label %for.body, label %for.end

for.body:                                         ; preds = %for.cond
  br label %for.inc

for.inc:                                          ; preds = %for.body
  %2 = load i8, i8* %i, align 1
  %inc = add i8 %2, 1
  store i8 %inc, i8* %i, align 1
  br label %for.cond

for.end:                                          ; preds = %for.cond
  %3 = load i8, i8* %i, align 1
  %conv3 = sext i8 %3 to i32
  %call4 = call i32 (i8*, ...) @printf(i8* getelementptr inbounds ([21 x i8], [21 x i8]* @.str.2, i32 0, i32 0), i32 %conv3)
  ret i32 0
}

declare i32 @printf(i8*, ...) #1

declare i32 @__isoc99_scanf(i8*, ...) #1

attributes #0 = { nounwind uwtable "disable-tail-calls"="false" "less-precise-fpmad"="false" "no-frame-pointer-elim"="true" "no-frame-pointer-elim-non-leaf" "no-infs-fp-math"="false" "no-nans-fp-math"="false" "stack-protector-buffer-size"="8" "target-cpu"="x86-64" "target-features"="+sse,+sse2" "unsafe-fp-math"="false" "use-soft-float"="false" }
attributes #1 = { "disable-tail-calls"="false" "less-precise-fpmad"="false" "no-frame-pointer-elim"="true" "no-frame-pointer-elim-non-leaf" "no-infs-fp-math"="false" "no-nans-fp-math"="false" "stack-protector-buffer-size"="8" "target-cpu"="x86-64" "target-features"="+sse,+sse2" "unsafe-fp-math"="false" "use-soft-float"="false" }

!llvm.ident = !{!0}

!0 = !{!"clang version 3.7.0 (tags/RELEASE_370/final)"}
