; ModuleID = 'test38.c'
target datalayout = "e-m:e-i64:64-f80:128-n8:16:32:64-S128"
target triple = "x86_64-unknown-linux-gnu"

@.str = private unnamed_addr constant [27 x i8] c"Enter a positive integer: \00", align 1
@.str.1 = private unnamed_addr constant [3 x i8] c"%d\00", align 1
@.str.2 = private unnamed_addr constant [22 x i8] c"Factorial of %d = %ld\00", align 1

; Function Attrs: nounwind uwtable
define i32 @main() #0 {
entry:
  %retval = alloca i32, align 4
  %n = alloca i32, align 4
  store i32 0, i32* %retval
  %call = call i32 (i8*, ...) @printf(i8* getelementptr inbounds ([27 x i8], [27 x i8]* @.str, i32 0, i32 0))
  %call1 = call i32 (i8*, ...) @__isoc99_scanf(i8* getelementptr inbounds ([3 x i8], [3 x i8]* @.str.1, i32 0, i32 0), i32* %n)
  %0 = load i32, i32* %n, align 4
  %1 = load i32, i32* %n, align 4
  %call2 = call i64 @multiplyNumbers(i32 %1)
  %call3 = call i32 (i8*, ...) @printf(i8* getelementptr inbounds ([22 x i8], [22 x i8]* @.str.2, i32 0, i32 0), i32 %0, i64 %call2)
  ret i32 0
}

declare i32 @printf(i8*, ...) #1

declare i32 @__isoc99_scanf(i8*, ...) #1

; Function Attrs: nounwind uwtable
define i64 @multiplyNumbers(i32 %n) #0 {
entry:
  %retval = alloca i64, align 8
  %n.addr = alloca i32, align 4
  store i32 %n, i32* %n.addr, align 4
  %0 = load i32, i32* %n.addr, align 4
  %cmp = icmp sge i32 %0, 1
  br i1 %cmp, label %if.then, label %if.else

if.then:                                          ; preds = %entry
  %1 = load i32, i32* %n.addr, align 4
  %conv = sext i32 %1 to i64
  %2 = load i32, i32* %n.addr, align 4
  %sub = sub nsw i32 %2, 1
  %call = call i64 @multiplyNumbers(i32 %sub)
  %mul = mul nsw i64 %conv, %call
  store i64 %mul, i64* %retval
  br label %return

if.else:                                          ; preds = %entry
  store i64 1, i64* %retval
  br label %return

return:                                           ; preds = %if.else, %if.then
  %3 = load i64, i64* %retval
  ret i64 %3
}

attributes #0 = { nounwind uwtable "disable-tail-calls"="false" "less-precise-fpmad"="false" "no-frame-pointer-elim"="true" "no-frame-pointer-elim-non-leaf" "no-infs-fp-math"="false" "no-nans-fp-math"="false" "stack-protector-buffer-size"="8" "target-cpu"="x86-64" "target-features"="+sse,+sse2" "unsafe-fp-math"="false" "use-soft-float"="false" }
attributes #1 = { "disable-tail-calls"="false" "less-precise-fpmad"="false" "no-frame-pointer-elim"="true" "no-frame-pointer-elim-non-leaf" "no-infs-fp-math"="false" "no-nans-fp-math"="false" "stack-protector-buffer-size"="8" "target-cpu"="x86-64" "target-features"="+sse,+sse2" "unsafe-fp-math"="false" "use-soft-float"="false" }

!llvm.ident = !{!0}

!0 = !{!"clang version 3.7.0 (tags/RELEASE_370/final)"}
