; ModuleID = 'test16.c'
target datalayout = "e-m:e-i64:64-f80:128-n8:16:32:64-S128"
target triple = "x86_64-unknown-linux-gnu"

@.str = private unnamed_addr constant [27 x i8] c"Enter a positive integer: \00", align 1
@.str.1 = private unnamed_addr constant [3 x i8] c"%d\00", align 1
@.str.2 = private unnamed_addr constant [9 x i8] c"Sum = %d\00", align 1

; Function Attrs: nounwind uwtable
define i32 @main() #0 {
entry:
  %n = alloca i32, align 4
  %0 = bitcast i32* %n to i8*
  call void @llvm.lifetime.start(i64 4, i8* %0) #1
  %call = tail call i32 (i8*, ...) @printf(i8* getelementptr inbounds ([27 x i8], [27 x i8]* @.str, i64 0, i64 0)) #1
  %call1 = call i32 (i8*, ...) @__isoc99_scanf(i8* getelementptr inbounds ([3 x i8], [3 x i8]* @.str.1, i64 0, i64 0), i32* nonnull %n) #1
  %1 = load i32, i32* %n, align 4, !tbaa !1
  %cmp.8 = icmp slt i32 %1, 1
  br i1 %cmp.8, label %for.end, label %for.body.lr.ph

for.body.lr.ph:                                   ; preds = %entry
  %2 = icmp sgt i32 %1, 1
  %smax = select i1 %2, i32 %1, i32 1
  %3 = shl i32 %smax, 1
  %4 = add i32 %smax, -1
  %5 = zext i32 %4 to i33
  %6 = add i32 %smax, -2
  %7 = zext i32 %6 to i33
  %8 = mul i33 %5, %7
  %9 = lshr i33 %8, 1
  %10 = trunc i33 %9 to i32
  %11 = add i32 %3, %10
  %12 = add i32 %11, -1
  br label %for.end

for.end:                                          ; preds = %for.body.lr.ph, %entry
  %sum.0.lcssa = phi i32 [ %12, %for.body.lr.ph ], [ 0, %entry ]
  %call2 = call i32 (i8*, ...) @printf(i8* getelementptr inbounds ([9 x i8], [9 x i8]* @.str.2, i64 0, i64 0), i32 %sum.0.lcssa) #1
  call void @llvm.lifetime.end(i64 4, i8* %0) #1
  ret i32 0
}

; Function Attrs: nounwind
declare void @llvm.lifetime.start(i64, i8* nocapture) #1

; Function Attrs: nounwind
declare i32 @printf(i8* nocapture readonly, ...) #2

; Function Attrs: nounwind
declare i32 @__isoc99_scanf(i8* nocapture readonly, ...) #2

; Function Attrs: nounwind
declare void @llvm.lifetime.end(i64, i8* nocapture) #1

attributes #0 = { nounwind uwtable "disable-tail-calls"="false" "less-precise-fpmad"="false" "no-frame-pointer-elim"="false" "no-infs-fp-math"="false" "no-nans-fp-math"="false" "stack-protector-buffer-size"="8" "target-cpu"="x86-64" "target-features"="+sse,+sse2" "unsafe-fp-math"="false" "use-soft-float"="false" }
attributes #1 = { nounwind }
attributes #2 = { nounwind "disable-tail-calls"="false" "less-precise-fpmad"="false" "no-frame-pointer-elim"="false" "no-infs-fp-math"="false" "no-nans-fp-math"="false" "stack-protector-buffer-size"="8" "target-cpu"="x86-64" "target-features"="+sse,+sse2" "unsafe-fp-math"="false" "use-soft-float"="false" }

!llvm.ident = !{!0}

!0 = !{!"clang version 3.7.0 (tags/RELEASE_370/final)"}
!1 = !{!2, !2, i64 0}
!2 = !{!"int", !3, i64 0}
!3 = !{!"omnipotent char", !4, i64 0}
!4 = !{!"Simple C/C++ TBAA"}
