; ModuleID = 'test337.c'
target datalayout = "e-m:e-i64:64-f80:128-n8:16:32:64-S128"
target triple = "x86_64-unknown-linux-gnu"

@.str.2 = private unnamed_addr constant [9 x i8] c"test 1 1\00", align 1
@.str.3 = private unnamed_addr constant [5 x i8] c"%s \0A\00", align 1
@.str.4 = private unnamed_addr constant [7 x i8] c"test 2\00", align 1
@.str.5 = private unnamed_addr constant [4 x i8] c"%d\0A\00", align 1

; Function Attrs: nounwind uwtable
define i32 @f1(i8** nocapture readonly %a) #0 {
entry:
  %arrayidx = getelementptr inbounds i8*, i8** %a, i64 1
  %0 = load i8*, i8** %arrayidx, align 8, !tbaa !1
  %puts = tail call i32 @puts(i8* %0)
  ret i32 0
}

; Function Attrs: nounwind
declare i32 @printf(i8* nocapture readonly, ...) #1

; Function Attrs: nounwind uwtable
define i32 @main() #0 {
entry:
  %call = tail call i32 (i8*, ...) @printf(i8* getelementptr inbounds ([5 x i8], [5 x i8]* @.str.3, i64 0, i64 0), i8* getelementptr inbounds ([9 x i8], [9 x i8]* @.str.2, i64 0, i64 0)) #2
  %puts = tail call i32 @puts(i8* getelementptr inbounds ([7 x i8], [7 x i8]* @.str.4, i64 0, i64 0))
  %puts.i = tail call i32 @puts(i8* getelementptr inbounds ([9 x i8], [9 x i8]* @.str.2, i64 0, i64 0)) #2
  %call8 = tail call i32 (i8*, ...) @printf(i8* getelementptr inbounds ([4 x i8], [4 x i8]* @.str.5, i64 0, i64 0), i32 33) #2
  %call11 = tail call i32 (i8*, ...) @printf(i8* getelementptr inbounds ([4 x i8], [4 x i8]* @.str.5, i64 0, i64 0), i32 33) #2
  ret i32 0
}

; Function Attrs: nounwind
declare i32 @puts(i8* nocapture readonly) #2

attributes #0 = { nounwind uwtable "disable-tail-calls"="false" "less-precise-fpmad"="false" "no-frame-pointer-elim"="false" "no-infs-fp-math"="false" "no-nans-fp-math"="false" "stack-protector-buffer-size"="8" "target-cpu"="x86-64" "target-features"="+sse,+sse2" "unsafe-fp-math"="false" "use-soft-float"="false" }
attributes #1 = { nounwind "disable-tail-calls"="false" "less-precise-fpmad"="false" "no-frame-pointer-elim"="false" "no-infs-fp-math"="false" "no-nans-fp-math"="false" "stack-protector-buffer-size"="8" "target-cpu"="x86-64" "target-features"="+sse,+sse2" "unsafe-fp-math"="false" "use-soft-float"="false" }
attributes #2 = { nounwind }

!llvm.ident = !{!0}

!0 = !{!"clang version 3.7.0 (tags/RELEASE_370/final)"}
!1 = !{!2, !2, i64 0}
!2 = !{!"any pointer", !3, i64 0}
!3 = !{!"omnipotent char", !4, i64 0}
!4 = !{!"Simple C/C++ TBAA"}
